-- Merging decision tree log ---
manifest
ADDED from /Users/gaspermezgec/My project/Library/Bee/Android/Prj/Mono2x/Gradle/unityLibrary/src/main/AndroidManifest.xml:2:1-30:12
INJECTED from /Users/gaspermezgec/My project/Library/Bee/Android/Prj/Mono2x/Gradle/unityLibrary/src/main/AndroidManifest.xml:2:1-30:12
INJECTED from /Users/gaspermezgec/My project/Library/Bee/Android/Prj/Mono2x/Gradle/unityLibrary/src/main/AndroidManifest.xml:2:1-30:12
INJECTED from /Users/gaspermezgec/My project/Library/Bee/Android/Prj/Mono2x/Gradle/unityLibrary/src/main/AndroidManifest.xml:2:1-30:12
INJECTED from /Users/gaspermezgec/My project/Library/Bee/Android/Prj/Mono2x/Gradle/unityLibrary/src/main/AndroidManifest.xml:2:1-30:12
INJECTED from /Users/gaspermezgec/My project/Library/Bee/Android/Prj/Mono2x/Gradle/unityLibrary/src/main/AndroidManifest.xml:2:1-30:12
INJECTED from /Users/gaspermezgec/My project/Library/Bee/Android/Prj/Mono2x/Gradle/unityLibrary/src/main/AndroidManifest.xml:2:1-30:12
	package
		ADDED from /Users/gaspermezgec/My project/Library/Bee/Android/Prj/Mono2x/Gradle/unityLibrary/src/main/AndroidManifest.xml:2:70-98
		INJECTED from /Users/gaspermezgec/My project/Library/Bee/Android/Prj/Mono2x/Gradle/unityLibrary/src/main/AndroidManifest.xml
		INJECTED from /Users/gaspermezgec/My project/Library/Bee/Android/Prj/Mono2x/Gradle/unityLibrary/src/main/AndroidManifest.xml
	android:versionName
		INJECTED from /Users/gaspermezgec/My project/Library/Bee/Android/Prj/Mono2x/Gradle/unityLibrary/src/main/AndroidManifest.xml
		ADDED from /Users/gaspermezgec/My project/Library/Bee/Android/Prj/Mono2x/Gradle/unityLibrary/src/main/AndroidManifest.xml:2:1-30:12
		INJECTED from /Users/gaspermezgec/My project/Library/Bee/Android/Prj/Mono2x/Gradle/unityLibrary/src/main/AndroidManifest.xml
	xmlns:tools
		ADDED from /Users/gaspermezgec/My project/Library/Bee/Android/Prj/Mono2x/Gradle/unityLibrary/src/main/AndroidManifest.xml:2:99-145
	android:versionCode
		INJECTED from /Users/gaspermezgec/My project/Library/Bee/Android/Prj/Mono2x/Gradle/unityLibrary/src/main/AndroidManifest.xml
		ADDED from /Users/gaspermezgec/My project/Library/Bee/Android/Prj/Mono2x/Gradle/unityLibrary/src/main/AndroidManifest.xml:2:1-30:12
		INJECTED from /Users/gaspermezgec/My project/Library/Bee/Android/Prj/Mono2x/Gradle/unityLibrary/src/main/AndroidManifest.xml
	xmlns:android
		ADDED from /Users/gaspermezgec/My project/Library/Bee/Android/Prj/Mono2x/Gradle/unityLibrary/src/main/AndroidManifest.xml:2:11-69
application
ADDED from /Users/gaspermezgec/My project/Library/Bee/Android/Prj/Mono2x/Gradle/unityLibrary/src/main/AndroidManifest.xml:3:3-18:17
	android:extractNativeLibs
		ADDED from /Users/gaspermezgec/My project/Library/Bee/Android/Prj/Mono2x/Gradle/unityLibrary/src/main/AndroidManifest.xml:3:16-48
activity#com.unity3d.player.UnityPlayerActivity
ADDED from /Users/gaspermezgec/My project/Library/Bee/Android/Prj/Mono2x/Gradle/unityLibrary/src/main/AndroidManifest.xml:4:5-11:16
	android:screenOrientation
		ADDED from /Users/gaspermezgec/My project/Library/Bee/Android/Prj/Mono2x/Gradle/unityLibrary/src/main/AndroidManifest.xml:4:111-149
	android:launchMode
		ADDED from /Users/gaspermezgec/My project/Library/Bee/Android/Prj/Mono2x/Gradle/unityLibrary/src/main/AndroidManifest.xml:4:150-181
	android:hardwareAccelerated
		ADDED from /Users/gaspermezgec/My project/Library/Bee/Android/Prj/Mono2x/Gradle/unityLibrary/src/main/AndroidManifest.xml:4:399-434
	android:resizeableActivity
		ADDED from /Users/gaspermezgec/My project/Library/Bee/Android/Prj/Mono2x/Gradle/unityLibrary/src/main/AndroidManifest.xml:4:364-398
	android:configChanges
		ADDED from /Users/gaspermezgec/My project/Library/Bee/Android/Prj/Mono2x/Gradle/unityLibrary/src/main/AndroidManifest.xml:4:182-363
	android:theme
		ADDED from /Users/gaspermezgec/My project/Library/Bee/Android/Prj/Mono2x/Gradle/unityLibrary/src/main/AndroidManifest.xml:4:69-110
	android:name
		ADDED from /Users/gaspermezgec/My project/Library/Bee/Android/Prj/Mono2x/Gradle/unityLibrary/src/main/AndroidManifest.xml:4:15-68
intent-filter#action:name:android.intent.action.MAIN+category:name:android.intent.category.LAUNCHER
ADDED from /Users/gaspermezgec/My project/Library/Bee/Android/Prj/Mono2x/Gradle/unityLibrary/src/main/AndroidManifest.xml:5:7-8:23
action#android.intent.action.MAIN
ADDED from /Users/gaspermezgec/My project/Library/Bee/Android/Prj/Mono2x/Gradle/unityLibrary/src/main/AndroidManifest.xml:6:9-61
	android:name
		ADDED from /Users/gaspermezgec/My project/Library/Bee/Android/Prj/Mono2x/Gradle/unityLibrary/src/main/AndroidManifest.xml:6:17-58
category#android.intent.category.LAUNCHER
ADDED from /Users/gaspermezgec/My project/Library/Bee/Android/Prj/Mono2x/Gradle/unityLibrary/src/main/AndroidManifest.xml:7:9-69
	android:name
		ADDED from /Users/gaspermezgec/My project/Library/Bee/Android/Prj/Mono2x/Gradle/unityLibrary/src/main/AndroidManifest.xml:7:19-66
meta-data#unityplayer.UnityActivity
ADDED from /Users/gaspermezgec/My project/Library/Bee/Android/Prj/Mono2x/Gradle/unityLibrary/src/main/AndroidManifest.xml:9:7-82
	android:value
		ADDED from /Users/gaspermezgec/My project/Library/Bee/Android/Prj/Mono2x/Gradle/unityLibrary/src/main/AndroidManifest.xml:9:59-79
	android:name
		ADDED from /Users/gaspermezgec/My project/Library/Bee/Android/Prj/Mono2x/Gradle/unityLibrary/src/main/AndroidManifest.xml:9:18-58
meta-data#android.notch_support
ADDED from /Users/gaspermezgec/My project/Library/Bee/Android/Prj/Mono2x/Gradle/unityLibrary/src/main/AndroidManifest.xml:10:7-78
	android:value
		ADDED from /Users/gaspermezgec/My project/Library/Bee/Android/Prj/Mono2x/Gradle/unityLibrary/src/main/AndroidManifest.xml:10:55-75
	android:name
		ADDED from /Users/gaspermezgec/My project/Library/Bee/Android/Prj/Mono2x/Gradle/unityLibrary/src/main/AndroidManifest.xml:10:18-54
meta-data#unity.splash-mode
ADDED from /Users/gaspermezgec/My project/Library/Bee/Android/Prj/Mono2x/Gradle/unityLibrary/src/main/AndroidManifest.xml:12:5-69
	android:value
		ADDED from /Users/gaspermezgec/My project/Library/Bee/Android/Prj/Mono2x/Gradle/unityLibrary/src/main/AndroidManifest.xml:12:49-66
	android:name
		ADDED from /Users/gaspermezgec/My project/Library/Bee/Android/Prj/Mono2x/Gradle/unityLibrary/src/main/AndroidManifest.xml:12:16-48
meta-data#unity.splash-enable
ADDED from /Users/gaspermezgec/My project/Library/Bee/Android/Prj/Mono2x/Gradle/unityLibrary/src/main/AndroidManifest.xml:13:5-74
	android:value
		ADDED from /Users/gaspermezgec/My project/Library/Bee/Android/Prj/Mono2x/Gradle/unityLibrary/src/main/AndroidManifest.xml:13:51-71
	android:name
		ADDED from /Users/gaspermezgec/My project/Library/Bee/Android/Prj/Mono2x/Gradle/unityLibrary/src/main/AndroidManifest.xml:13:16-50
meta-data#unity.launch-fullscreen
ADDED from /Users/gaspermezgec/My project/Library/Bee/Android/Prj/Mono2x/Gradle/unityLibrary/src/main/AndroidManifest.xml:14:5-78
	android:value
		ADDED from /Users/gaspermezgec/My project/Library/Bee/Android/Prj/Mono2x/Gradle/unityLibrary/src/main/AndroidManifest.xml:14:55-75
	android:name
		ADDED from /Users/gaspermezgec/My project/Library/Bee/Android/Prj/Mono2x/Gradle/unityLibrary/src/main/AndroidManifest.xml:14:16-54
meta-data#unity.allow-resizable-window
ADDED from /Users/gaspermezgec/My project/Library/Bee/Android/Prj/Mono2x/Gradle/unityLibrary/src/main/AndroidManifest.xml:15:5-84
	android:value
		ADDED from /Users/gaspermezgec/My project/Library/Bee/Android/Prj/Mono2x/Gradle/unityLibrary/src/main/AndroidManifest.xml:15:60-81
	android:name
		ADDED from /Users/gaspermezgec/My project/Library/Bee/Android/Prj/Mono2x/Gradle/unityLibrary/src/main/AndroidManifest.xml:15:16-59
meta-data#notch.config
ADDED from /Users/gaspermezgec/My project/Library/Bee/Android/Prj/Mono2x/Gradle/unityLibrary/src/main/AndroidManifest.xml:16:5-81
	android:value
		ADDED from /Users/gaspermezgec/My project/Library/Bee/Android/Prj/Mono2x/Gradle/unityLibrary/src/main/AndroidManifest.xml:16:44-78
	android:name
		ADDED from /Users/gaspermezgec/My project/Library/Bee/Android/Prj/Mono2x/Gradle/unityLibrary/src/main/AndroidManifest.xml:16:16-43
meta-data#com.google.ar.core
ADDED from /Users/gaspermezgec/My project/Library/Bee/Android/Prj/Mono2x/Gradle/unityLibrary/src/main/AndroidManifest.xml:17:5-77
	android:value
		ADDED from /Users/gaspermezgec/My project/Library/Bee/Android/Prj/Mono2x/Gradle/unityLibrary/src/main/AndroidManifest.xml:17:50-74
	android:name
		ADDED from /Users/gaspermezgec/My project/Library/Bee/Android/Prj/Mono2x/Gradle/unityLibrary/src/main/AndroidManifest.xml:17:16-49
uses-feature#0x00030000
ADDED from /Users/gaspermezgec/My project/Library/Bee/Android/Prj/Mono2x/Gradle/unityLibrary/src/main/AndroidManifest.xml:19:3-52
	android:glEsVersion
		ADDED from /Users/gaspermezgec/My project/Library/Bee/Android/Prj/Mono2x/Gradle/unityLibrary/src/main/AndroidManifest.xml:19:17-49
uses-feature#android.hardware.vulkan.version
ADDED from /Users/gaspermezgec/My project/Library/Bee/Android/Prj/Mono2x/Gradle/unityLibrary/src/main/AndroidManifest.xml:20:3-91
	android:required
		ADDED from /Users/gaspermezgec/My project/Library/Bee/Android/Prj/Mono2x/Gradle/unityLibrary/src/main/AndroidManifest.xml:20:64-88
	android:name
		ADDED from /Users/gaspermezgec/My project/Library/Bee/Android/Prj/Mono2x/Gradle/unityLibrary/src/main/AndroidManifest.xml:20:17-63
uses-permission#android.permission.INTERNET
ADDED from /Users/gaspermezgec/My project/Library/Bee/Android/Prj/Mono2x/Gradle/unityLibrary/src/main/AndroidManifest.xml:21:3-65
	android:name
		ADDED from /Users/gaspermezgec/My project/Library/Bee/Android/Prj/Mono2x/Gradle/unityLibrary/src/main/AndroidManifest.xml:21:20-62
uses-permission#android.permission.ACCESS_NETWORK_STATE
ADDED from /Users/gaspermezgec/My project/Library/Bee/Android/Prj/Mono2x/Gradle/unityLibrary/src/main/AndroidManifest.xml:22:3-77
	android:name
		ADDED from /Users/gaspermezgec/My project/Library/Bee/Android/Prj/Mono2x/Gradle/unityLibrary/src/main/AndroidManifest.xml:22:20-74
uses-permission#android.permission.CAMERA
ADDED from /Users/gaspermezgec/My project/Library/Bee/Android/Prj/Mono2x/Gradle/unityLibrary/src/main/AndroidManifest.xml:23:3-63
	android:name
		ADDED from /Users/gaspermezgec/My project/Library/Bee/Android/Prj/Mono2x/Gradle/unityLibrary/src/main/AndroidManifest.xml:23:20-60
uses-feature#android.hardware.camera
ADDED from /Users/gaspermezgec/My project/Library/Bee/Android/Prj/Mono2x/Gradle/unityLibrary/src/main/AndroidManifest.xml:24:3-83
	android:required
		ADDED from /Users/gaspermezgec/My project/Library/Bee/Android/Prj/Mono2x/Gradle/unityLibrary/src/main/AndroidManifest.xml:24:56-80
	android:name
		ADDED from /Users/gaspermezgec/My project/Library/Bee/Android/Prj/Mono2x/Gradle/unityLibrary/src/main/AndroidManifest.xml:24:17-55
uses-feature#android.hardware.camera.autofocus
ADDED from /Users/gaspermezgec/My project/Library/Bee/Android/Prj/Mono2x/Gradle/unityLibrary/src/main/AndroidManifest.xml:25:3-93
	android:required
		ADDED from /Users/gaspermezgec/My project/Library/Bee/Android/Prj/Mono2x/Gradle/unityLibrary/src/main/AndroidManifest.xml:25:66-90
	android:name
		ADDED from /Users/gaspermezgec/My project/Library/Bee/Android/Prj/Mono2x/Gradle/unityLibrary/src/main/AndroidManifest.xml:25:17-65
uses-feature#android.hardware.camera.front
ADDED from /Users/gaspermezgec/My project/Library/Bee/Android/Prj/Mono2x/Gradle/unityLibrary/src/main/AndroidManifest.xml:26:3-89
	android:required
		ADDED from /Users/gaspermezgec/My project/Library/Bee/Android/Prj/Mono2x/Gradle/unityLibrary/src/main/AndroidManifest.xml:26:62-86
	android:name
		ADDED from /Users/gaspermezgec/My project/Library/Bee/Android/Prj/Mono2x/Gradle/unityLibrary/src/main/AndroidManifest.xml:26:17-61
uses-feature#android.hardware.touchscreen
ADDED from /Users/gaspermezgec/My project/Library/Bee/Android/Prj/Mono2x/Gradle/unityLibrary/src/main/AndroidManifest.xml:27:3-88
	android:required
		ADDED from /Users/gaspermezgec/My project/Library/Bee/Android/Prj/Mono2x/Gradle/unityLibrary/src/main/AndroidManifest.xml:27:61-85
	android:name
		ADDED from /Users/gaspermezgec/My project/Library/Bee/Android/Prj/Mono2x/Gradle/unityLibrary/src/main/AndroidManifest.xml:27:17-60
uses-feature#android.hardware.touchscreen.multitouch
ADDED from /Users/gaspermezgec/My project/Library/Bee/Android/Prj/Mono2x/Gradle/unityLibrary/src/main/AndroidManifest.xml:28:3-99
	android:required
		ADDED from /Users/gaspermezgec/My project/Library/Bee/Android/Prj/Mono2x/Gradle/unityLibrary/src/main/AndroidManifest.xml:28:72-96
	android:name
		ADDED from /Users/gaspermezgec/My project/Library/Bee/Android/Prj/Mono2x/Gradle/unityLibrary/src/main/AndroidManifest.xml:28:17-71
uses-feature#android.hardware.touchscreen.multitouch.distinct
ADDED from /Users/gaspermezgec/My project/Library/Bee/Android/Prj/Mono2x/Gradle/unityLibrary/src/main/AndroidManifest.xml:29:3-108
	android:required
		ADDED from /Users/gaspermezgec/My project/Library/Bee/Android/Prj/Mono2x/Gradle/unityLibrary/src/main/AndroidManifest.xml:29:81-105
	android:name
		ADDED from /Users/gaspermezgec/My project/Library/Bee/Android/Prj/Mono2x/Gradle/unityLibrary/src/main/AndroidManifest.xml:29:17-80
uses-sdk
INJECTED from /Users/gaspermezgec/My project/Library/Bee/Android/Prj/Mono2x/Gradle/unityLibrary/src/main/AndroidManifest.xml reason: use-sdk injection requested
INJECTED from /Users/gaspermezgec/My project/Library/Bee/Android/Prj/Mono2x/Gradle/unityLibrary/src/main/AndroidManifest.xml
INJECTED from /Users/gaspermezgec/My project/Library/Bee/Android/Prj/Mono2x/Gradle/unityLibrary/src/main/AndroidManifest.xml
INJECTED from /Users/gaspermezgec/My project/Library/Bee/Android/Prj/Mono2x/Gradle/unityLibrary/src/main/AndroidManifest.xml
INJECTED from /Users/gaspermezgec/My project/Library/Bee/Android/Prj/Mono2x/Gradle/unityLibrary/src/main/AndroidManifest.xml
	android:targetSdkVersion
		INJECTED from /Users/gaspermezgec/My project/Library/Bee/Android/Prj/Mono2x/Gradle/unityLibrary/src/main/AndroidManifest.xml
		ADDED from /Users/gaspermezgec/My project/Library/Bee/Android/Prj/Mono2x/Gradle/unityLibrary/src/main/AndroidManifest.xml
		INJECTED from /Users/gaspermezgec/My project/Library/Bee/Android/Prj/Mono2x/Gradle/unityLibrary/src/main/AndroidManifest.xml
	android:minSdkVersion
		INJECTED from /Users/gaspermezgec/My project/Library/Bee/Android/Prj/Mono2x/Gradle/unityLibrary/src/main/AndroidManifest.xml
		ADDED from /Users/gaspermezgec/My project/Library/Bee/Android/Prj/Mono2x/Gradle/unityLibrary/src/main/AndroidManifest.xml
		INJECTED from /Users/gaspermezgec/My project/Library/Bee/Android/Prj/Mono2x/Gradle/unityLibrary/src/main/AndroidManifest.xml
